[
  {
    "id": 0,
    "userId": 0,
    "products": [
      {
        "name": "CPU",
        "price": 25.0
      },
      {
        "name": "Video card",
        "price": 250.0
      }
    ],
    "orderStatus": "NEW"
  },
  {
    "id": 1,
    "userId": 0,
    "products": [
      {
        "name": "iPhone 5",
        "price": 1200.0
      }
    ],
    "orderStatus": "NEW"
  },
  {
    "id": 2,
    "userId": 1,
    "products": [
      {
        "name": "Apple",
        "price": 2.5
      }
    ],
    "orderStatus": "NEW"
  },
  {
    "id": 3,
    "userId": 1,
    "products": [
      {
        "name": "Fish",
        "price": 10.0
      }
    ],
    "orderStatus": "NEW"
  },
  {
    "id": 4,
    "userId": 3,
    "products": [
      {
        "name": "Shampoo",
        "price": 5.0
      },
      {
        "name": "Towel",
        "price": 0.99
      }
    ],
    "orderStatus": "NEW"
  },
  {
    "id": 5,
    "userId": 3,
    "products": [
      {
        "name": "Pan",
        "price": 7.5
      },
      {
        "name": "Grater",
        "price": 1.99
      }
    ],
    "orderStatus": "NEW"
  },
  {
    "id": 6,
    "userId": 3,
    "products": [
      {
        "name": "Bread",
        "price": 0.15
      },
      {
        "name": "Cookies",
        "price": 0.25
      }
    ],
    "orderStatus": "NEW"
  },
  {
    "id": 7,
    "userId": 2,
    "products": [
      {
        "name": "Sausage",
        "price": 5.5
      },
      {
        "name": "Cheese",
        "price": 13.25
      }
    ],
    "orderStatus": "NEW"
  },
  {
    "id": 8,
    "userId": 4,
    "products": [
      {
        "name": "Tomatoes",
        "price": 6.12
      },
      {
        "name": "Parsley",
        "price": 16.5
      }
    ],
    "orderStatus": "NEW"
  },
  {
    "id": 9,
    "userId": 4,
    "products": [
      {
        "name": "Dill",
        "price": 0.15
      }
    ],
    "orderStatus": "NEW"
  },
  {
    "id": 10,
    "userId": 0,
    "products": [
      {
        "name": "Cherry",
        "price": 12.0
      },
      {
        "name": "Apricot",
        "price": 5.5
      },
      {
        "name": "Strawberry",
        "price": 13.65
      }
    ],
    "orderStatus": "NEW"
  }
]
