[
  {
    "id": 0,
    "name": "One",
    "email": "1@gmail.com",
    "password": "67ed235e1e075a7214902e1af0cb4bb4ad3ba0fcf084411418074cf4247004cc"
  },
  {
    "id": 1,
    "name": "Two",
    "email": "2@yahoo.com",
    "password": "7bab9c019f082639a163c437288ed2fe6da3e08a447cf9b8487f7c3535613fda"
  },
  {
    "id": 2,
    "name": "Three",
    "email": "3@yahoo.com",
    "password": "6d40ddcd2f74c6005fc97f31b0687e06c3d581793e40f1d316172148db7d220c"
  },
  {
    "id": 3,
    "name": "Four",
    "email": "4@yahoo.com",
    "password": "73533c963db69ccb674649107061eb2ac2a6c183a4b0ca08559a1b50d69a3290"
  },
  {
    "id": 4,
    "name": "Five",
    "email": "5@gmail.com",
    "password": "051774ec88cbb9ba75dedcff21d2441da61e70f0688e9c865f83f145390270b2"
  }
]
